{"paging": {"total_items": 1624, "current_page": 1, "total_pages": 65}, "data": [{"name": "RAU (invalid)", "parent": {"name": "Armenia", "url": "https://gis.aiesec.org/v2/committees/1541", "country": "Europe", "id": 1541, "parent_id": 1629, "tag": "MC", "full_name": "AIESEC in Armenia", "email": "armenia.aiesec@gmail.com"}, "url": "https://gis.aiesec.org/v2/committees/2232", "country": "Armenia", "id": 2232, "parent_id": 1541, "tag": "LC", "full_name": "AIESEC in RAU (invalid)", "email": null, "profile_photo_url": "https://cdn-expa.aiesec.org/gis-img/missing_profile_r.svg"}, {"name": "RAU (invalid)", "parent": {"name": "Armenia", "url": "https://gis.aiesec.org/v2/committees/1541", "country": "Europe", "id": 1541, "parent_id": 1629, "tag": "MC", "full_name": "AIESEC in Armenia", "email": "armenia.aiesec@gmail.com"}, "url": "https://gis.aiesec.org/v2/committees/2231", "country": "Armenia", "id": 2231, "parent_id": 1541, "tag": "LC", "full_name": "AIESEC in RAU (invalid)", "email": null, "profile_photo_url": "https://cdn-expa.aiesec.org/gis-img/missing_profile_r.svg"}, {"name": "RAU (invalid)", "parent": {"name": "Armenia", "url": "https://gis.aiesec.org/v2/committees/1541", "country": "Europe", "id": 1541, "parent_id": 1629, "tag": "MC", "full_name": "AIESEC in Armenia", "email": "armenia.aiesec@gmail.com"}, "url": "https://gis.aiesec.org/v2/committees/2230", "country": "Armenia", "id": 2230, "parent_id": 1541, "tag": "LC", "full_name": "AIESEC in RAU (invalid)", "email": null, "profile_photo_url": "https://cdn-expa.aiesec.org/gis-img/missing_profile_r.svg"}, {"name": "RAU", "parent": {"name": "Armenia", "url": "https://gis.aiesec.org/v2/committees/1541", "country": "Europe", "id": 1541, "parent_id": 1629, "tag": "MC", "full_name": "AIESEC in Armenia", "email": "armenia.aiesec@gmail.com"}, "url": "https://gis.aiesec.org/v2/committees/2229", "country": "Armenia", "id": 2229, "parent_id": 1541, "tag": "LC", "full_name": "AIESEC in RAU", "email": null, "profile_photo_url": "https://cdn-expa.aiesec.org/gis-img/missing_profile_r.svg"}, {"name": "Lomas de Zamora", "parent": {"name": "Argentina", "url": "https://gis.aiesec.org/v2/committees/1535", "country": "Americas", "id": 1535, "parent_id": 1627, "tag": "MC", "full_name": "AIESEC in Argentina", "email": "mcebargentina@gmail.com"}, "url": "https://gis.aiesec.org/v2/committees/2228", "country": "Argentina", "id": 2228, "parent_id": 1535, "tag": "LC", "full_name": "AIESEC in Lomas de Zamora", "email": null, "profile_photo_url": "https://cdn-expa.aiesec.org/gis-img/missing_profile_l.svg"}, {"name": "Santiago del Estero", "parent": {"name": "Argentina", "url": "https://gis.aiesec.org/v2/committees/1535", "country": "Americas", "id": 1535, "parent_id": 1627, "tag": "MC", "full_name": "AIESEC in Argentina", "email": "mcebargentina@gmail.com"}, "url": "https://gis.aiesec.org/v2/committees/2227", "country": "Argentina", "id": 2227, "parent_id": 1535, "tag": "LC", "full_name": "AIESEC in Santiago del Estero", "email": null, "profile_photo_url": "https://cdn-expa.aiesec.org/gis-img/missing_profile_s.svg"}, {"name": "Jujuy", "parent": {"name": "Argentina", "url": "https://gis.aiesec.org/v2/committees/1535", "country": "Americas", "id": 1535, "parent_id": 1627, "tag": "MC", "full_name": "AIESEC in Argentina", "email": "mcebargentina@gmail.com"}, "url": "https://gis.aiesec.org/v2/committees/2226", "country": "Argentina", "id": 2226, "parent_id": 1535, "tag": "LC", "full_name": "AIESEC in Jujuy", "email": "sandra.torrico2@aiesec.net", "profile_photo_url": "https://cdn-expa.aiesec.org/gis-img/missing_profile_j.svg"}, {"name": "Hamedan", "parent": {"name": "Iran", "url": "https://gis.aiesec.org/v2/committees/495", "country": "Asia Pacific", "id": 495, "parent_id": 1630, "tag": "MC", "full_name": "AIESEC in Iran", "email": "national.aiesec.iran@gmail.com"}, "url": "https://gis.aiesec.org/v2/committees/2225", "country": "Iran", "id": 2225, "parent_id": 495, "tag": "LC", "full_name": "AIESEC in Hamedan", "email": null, "profile_photo_url": "https://cdn-expa.aiesec.org/gis-img/missing_profile_h.svg"}, {"name": "Hamedan", "parent": {"name": "Iran", "url": "https://gis.aiesec.org/v2/committees/495", "country": "Asia Pacific", "id": 495, "parent_id": 1630, "tag": "MC", "full_name": "AIESEC in Iran", "email": "national.aiesec.iran@gmail.com"}, "url": "https://gis.aiesec.org/v2/committees/2224", "country": "Iran", "id": 2224, "parent_id": 495, "tag": "LC", "full_name": "AIESEC in Hamedan", "email": null, "profile_photo_url": "https://cdn-expa.aiesec.org/gis-img/missing_profile_h.svg"}, {"name": "Hamedan", "parent": {"name": "Iran", "url": "https://gis.aiesec.org/v2/committees/495", "country": "Asia Pacific", "id": 495, "parent_id": 1630, "tag": "MC", "full_name": "AIESEC in Iran", "email": "national.aiesec.iran@gmail.com"}, "url": "https://gis.aiesec.org/v2/committees/2223", "country": "Iran", "id": 2223, "parent_id": 495, "tag": "LC", "full_name": "AIESEC in Hamedan", "email": null, "profile_photo_url": "https://cdn-expa.aiesec.org/gis-img/missing_profile_h.svg"}, {"name": "Kermanshah", "parent": {"name": "Iran", "url": "https://gis.aiesec.org/v2/committees/495", "country": "Asia Pacific", "id": 495, "parent_id": 1630, "tag": "MC", "full_name": "AIESEC in Iran", "email": "national.aiesec.iran@gmail.com"}, "url": "https://gis.aiesec.org/v2/committees/2222", "country": "Iran", "id": 2222, "parent_id": 495, "tag": "LC", "full_name": "AIESEC in Kermanshah", "email": null, "profile_photo_url": "https://cdn-expa.aiesec.org/gis-img/missing_profile_k.svg"}, {"name": "Kermanshah", "parent": {"name": "Iran", "url": "https://gis.aiesec.org/v2/committees/495", "country": "Asia Pacific", "id": 495, "parent_id": 1630, "tag": "MC", "full_name": "AIESEC in Iran", "email": "national.aiesec.iran@gmail.com"}, "url": "https://gis.aiesec.org/v2/committees/2221", "country": "Iran", "id": 2221, "parent_id": 495, "tag": "LC", "full_name": "AIESEC in Kermanshah", "email": null, "profile_photo_url": "https://cdn-expa.aiesec.org/gis-img/missing_profile_k.svg"}, {"name": "Kermanshah", "parent": {"name": "Iran", "url": "https://gis.aiesec.org/v2/committees/495", "country": "Asia Pacific", "id": 495, "parent_id": 1630, "tag": "MC", "full_name": "AIESEC in Iran", "email": "national.aiesec.iran@gmail.com"}, "url": "https://gis.aiesec.org/v2/committees/2220", "country": "Iran", "id": 2220, "parent_id": 495, "tag": "LC", "full_name": "AIESEC in Kermanshah", "email": null, "profile_photo_url": "https://cdn-expa.aiesec.org/gis-img/missing_profile_k.svg"}, {"name": "Kermanshah", "parent": {"name": "Iran", "url": "https://gis.aiesec.org/v2/committees/495", "country": "Asia Pacific", "id": 495, "parent_id": 1630, "tag": "MC", "full_name": "AIESEC in Iran", "email": "national.aiesec.iran@gmail.com"}, "url": "https://gis.aiesec.org/v2/committees/2219", "country": "Iran", "id": 2219, "parent_id": 495, "tag": "LC", "full_name": "AIESEC in Kermanshah", "email": null, "profile_photo_url": "https://cdn-expa.aiesec.org/gis-img/missing_profile_k.svg"}, {"name": "Expansiones Argentina", "parent": {"name": "Argentina", "url": "https://gis.aiesec.org/v2/committees/1535", "country": "Americas", "id": 1535, "parent_id": 1627, "tag": "MC", "full_name": "AIESEC in Argentina", "email": "mcebargentina@gmail.com"}, "url": "https://gis.aiesec.org/v2/committees/2218", "country": "Argentina", "id": 2218, "parent_id": 1535, "tag": "LC", "full_name": "AIESEC in Expansiones Argentina", "email": null, "profile_photo_url": "https://cdn-expa.aiesec.org/gis-img/missing_profile_e.svg"}, {"name": "-AO,HZAU", "parent": {"name": "China, Mainland", "url": "https://gis.aiesec.org/v2/committees/1613", "country": "Asia Pacific", "id": 1613, "parent_id": 1630, "tag": "MC", "full_name": "AIESEC in China, Mainland", "email": "mainland.china@aiesec.net"}, "url": "https://gis.aiesec.org/v2/committees/2217", "country": "China, Mainland", "id": 2217, "parent_id": 1613, "tag": "LC", "full_name": "AIESEC in -AO,HZAU", "email": "whzau1501@gmail.com", "profile_photo_url": "https://cdn-expa.aiesec.org/gis-img/missing_profile_0.svg"}, {"name": "Other", "parent": {"name": "Cabo Verde", "url": "https://gis.aiesec.org/v2/committees/29", "country": "Middle East and Africa", "id": 29, "parent_id": 1632, "tag": "MC", "full_name": "AIESEC in Cabo Verde", "email": "aiesec.caboverde@gmail.com"}, "url": "https://gis.aiesec.org/v2/committees/2216", "country": "Cabo Verde", "id": 2216, "parent_id": 29, "tag": "LC", "full_name": "AIESEC in Other", "email": "caboverde@aiesec.net", "profile_photo_url": "https://cdn-expa.aiesec.org/gis-img/missing_profile_o.svg"}, {"name": "Novi Pazar", "parent": {"name": "Serbia", "url": "https://gis.aiesec.org/v2/committees/1547", "country": "Europe", "id": 1547, "parent_id": 1629, "tag": "MC", "full_name": "AIESEC in Serbia", "email": "office@aiesec.org.rs"}, "url": "https://gis.aiesec.org/v2/committees/2215", "country": "Serbia", "id": 2215, "parent_id": 1547, "tag": "LC", "full_name": "AIESEC in Novi Pazar", "email": null, "profile_photo_url": "https://cdn-expa.aiesec.org/gis-img/missing_profile_n.svg"}, {"name": "KIM", "parent": {"name": "Rwanda", "url": "https://gis.aiesec.org/v2/committees/506", "country": "Middle East and Africa", "id": 506, "parent_id": 1632, "tag": "MC", "full_name": "AIESEC in Rwanda", "email": "rwanda@aiesec.net"}, "url": "https://gis.aiesec.org/v2/committees/2214", "country": "Rwanda", "id": 2214, "parent_id": 506, "tag": "LC", "full_name": "AIESEC in KIM", "email": null, "profile_photo_url": "https://cdn-expa.aiesec.org/gis-img/missing_profile_k.svg"}, {"name": "KIM", "parent": {"name": "Rwanda", "url": "https://gis.aiesec.org/v2/committees/506", "country": "Middle East and Africa", "id": 506, "parent_id": 1632, "tag": "MC", "full_name": "AIESEC in Rwanda", "email": "rwanda@aiesec.net"}, "url": "https://gis.aiesec.org/v2/committees/2213", "country": "Rwanda", "id": 2213, "parent_id": 506, "tag": "LC", "full_name": "AIESEC in KIM", "email": "daniel.acheampong.2@aiesec.net", "profile_photo_url": "https://cdn-expa.aiesec.org/gis-img/missing_profile_k.svg"}, {"name": "Huye", "parent": {"name": "Rwanda", "url": "https://gis.aiesec.org/v2/committees/506", "country": "Middle East and Africa", "id": 506, "parent_id": 1632, "tag": "MC", "full_name": "AIESEC in Rwanda", "email": "rwanda@aiesec.net"}, "url": "https://gis.aiesec.org/v2/committees/2212", "country": "Rwanda", "id": 2212, "parent_id": 506, "tag": "LC", "full_name": "AIESEC in Huye", "email": "david.niyonsaba@aiesec.net", "profile_photo_url": "https://cdn-expa.aiesec.org/gis-img/missing_profile_h.svg"}, {"name": "UNICIT (Nicaragua)", "parent": {"name": "Nicaragua", "url": "https://gis.aiesec.org/v2/committees/178", "country": "Americas", "id": 178, "parent_id": 1627, "tag": "MC", "full_name": "AIESEC in Nicaragua", "email": "contacto@aiesecni.org"}, "url": "https://gis.aiesec.org/v2/committees/2211", "country": "Nicaragua", "id": 2211, "parent_id": 178, "tag": "LC", "full_name": "AIESEC in UNICIT (Nicaragua)", "email": null, "profile_photo_url": "https://cdn-expa.aiesec.org/gis-img/missing_profile_u.svg"}, {"name": "Bousher", "parent": {"name": "Oman", "url": "https://gis.aiesec.org/v2/committees/477", "country": "Middle East and Africa", "id": 477, "parent_id": 1632, "tag": "MC", "full_name": "AIESEC in Oman", "email": "maris@aiesecoman.org"}, "url": "https://gis.aiesec.org/v2/committees/2210", "country": "Oman", "id": 2210, "parent_id": 477, "tag": "LC", "full_name": "AIESEC in Bousher", "email": "zozoalzadjali20@hotmail.com", "profile_photo_url": "https://cdn-expa.aiesec.org/gis-img/missing_profile_b.svg"}, {"name": "Albania MC", "parent": {"name": "Albania", "url": "https://gis.aiesec.org/v2/committees/133", "country": "Europe", "id": 133, "parent_id": 1629, "tag": "MC", "full_name": "AIESEC in Albania", "email": "aiesec.albania@aiesec.net"}, "url": "https://gis.aiesec.org/v2/committees/2209", "country": "Albania", "id": 2209, "parent_id": 133, "tag": "LC", "full_name": "AIESEC in Albania MC", "email": "aiesec.albania@aiesec.net", "profile_photo_url": "https://cdn-expa.aiesec.org/gis-img/missing_profile_a.svg"}, {"name": "United Methodist University", "parent": {"name": "Liberia", "url": "https://gis.aiesec.org/v2/committees/219", "country": "Middle East and Africa", "id": 219, "parent_id": 1632, "tag": "MC", "full_name": "AIESEC in Liberia", "email": "liberia.aiesec@gmail.com"}, "url": "https://gis.aiesec.org/v2/committees/2208", "country": "Liberia", "id": 2208, "parent_id": 219, "tag": "LC", "full_name": "AIESEC in United Methodist University", "email": "liberia.aiesec@gmail.com", "profile_photo_url": "https://cdn-expa.aiesec.org/gis-img/missing_profile_u.svg"}], "facets": [{"terms": [], "total": 0, "type": "terms", "name": "all_statuses"}, {"terms": [], "total": 0, "type": "terms", "name": "status"}]}